-------------------------------------------------------------------------------
Test set: com.epam.rd.java.basic.task7.TaskTest
-------------------------------------------------------------------------------
Tests run: 7, Failures: 1, Errors: 4, Skipped: 0, Time elapsed: 2.537 s <<< FAILURE! - in com.epam.rd.java.basic.task7.TaskTest
testDemo  Time elapsed: 0.276 s  <<< ERROR!
java.lang.NullPointerException
	at com.epam.rd.java.basic.task7.TaskTest.testDemo(TaskTest.java:115)

test2  Time elapsed: 0.089 s  <<< FAILURE!
org.opentest4j.AssertionFailedError: Two teams must be equaled if their logins are equaled ==> expected: <true> but was: <false>
	at com.epam.rd.java.basic.task7.TaskTest.test2(TaskTest.java:131)

test3  Time elapsed: 0.078 s  <<< ERROR!
java.lang.NullPointerException
	at com.epam.rd.java.basic.task7.TaskTest.createAndInsertUsers(TaskTest.java:271)
	at com.epam.rd.java.basic.task7.TaskTest.test3(TaskTest.java:136)

test4  Time elapsed: 0.037 s  <<< ERROR!
java.lang.NullPointerException
	at com.epam.rd.java.basic.task7.TaskTest.createAndInsertTeams(TaskTest.java:258)
	at com.epam.rd.java.basic.task7.TaskTest.test4(TaskTest.java:143)

test5  Time elapsed: 0.041 s  <<< ERROR!
java.lang.NullPointerException
	at com.epam.rd.java.basic.task7.TaskTest.createAndInsertUsers(TaskTest.java:271)
	at com.epam.rd.java.basic.task7.TaskTest.test5(TaskTest.java:151)

